Lazure - graded lab2
…
grades_per_student <- data_set %>%
  distinct(id, .keep_all = TRUE) %>% 
  group_by(id) %>%
  summarise(
    min_grade = min(grade, na.rm = TRUE),
    max_bpm = max(grade, na.rm = TRUE),
    mean_bpm = mean(grade, na.rm = TRUE),
    median_bpm = median(grade, na.rm = TRUE),
    grades_count = n()
  )

grades_per_student

# A tibble: 885 × 6
      id min_grade max_bpm mean_bpm median_bpm grades_count
   <int>     <dbl>   <dbl>    <dbl>      <dbl>        <int>
 1     1        11      11       11         11            1
 2     2        15      15       15         15            1
 3     3        10      10       10         10            1
 4     4        13      13       13         13            1
 5     5        14      14       14         14            1
 6     6        13      13       13         13            1
 7     7        10      10       10         10            1
 8     8        15      15       15         15            1
 9     9        12      12       12         12            1
10    10        12      12       12         12            1
# ℹ 875 more rows
…
Grade analysis

#12

average_grades <- data_set %>%
  filter(course=="Art and Expression in a Post-Apocalyptic World" | course=="Combat Tactics and Self-Defense") %>%
  group_by(id, group, course) %>%
  summarise(Average_Grade = mean(grade, na.rm = TRUE))

`summarise()` has grouped output by 'id', 'group'. You can override using the
`.groups` argument.

average_grades

# A tibble: 1,770 × 4
# Groups:   id, group [885]
      id group course                                         Average_Grade
   <int> <int> <chr>                                                  <dbl>
 1     1     8 Art and Expression in a Post-Apocalyptic World         13.8 
 2     1     8 Combat Tactics and Self-Defense                        10.2 
 3     2     9 Art and Expression in a Post-Apocalyptic World         13   
 4     2     9 Combat Tactics and Self-Defense                        12.9 
 5     3     2 Art and Expression in a Post-Apocalyptic World         12.5 
 6     3     2 Combat Tactics and Self-Defense                         9.75
 7     4     9 Art and Expression in a Post-Apocalyptic World         14.6 
 8     4     9 Combat Tactics and Self-Defense                        10.6 
 9     5     1 Art and Expression in a Post-Apocalyptic World         13.4 
10     5     1 Combat Tactics and Self-Defense                        11.2 
# ℹ 1,760 more rows

pivoted_grades <- average_grades %>%
  pivot_wider(names_from = course, values_from = Average_Grade)
pivoted_grades

# A tibble: 885 × 4
# Groups:   id, group [885]
      id group Art and Expression in a Post-Apocalyptic…¹ Combat Tactics and S…²
   <int> <int>                                      <dbl>                  <dbl>
 1     1     8                                       13.8                  10.2 
 2     2     9                                       13                    12.9 
 3     3     2                                       12.5                   9.75
 4     4     9                                       14.6                  10.6 
 5     5     1                                       13.4                  11.2 
 6     6    14                                       12.6                  10.6 
 7     7    19                                       12.5                  11.6 
 8     8     2                                       12.1                   8.19
 9     9     2                                       12.1                   9.12
10    10    13                                       13.6                  10.7 
# ℹ 875 more rows
# ℹ abbreviated names: ¹​`Art and Expression in a Post-Apocalyptic World`,
#   ²​`Combat Tactics and Self-Defense`

#13

average_grades2 <- data_set %>%
  filter(course=="Renewable Energy and Sustainable Living" | course=="Radiation Ecology and Environmental Science") %>%
  group_by(id, group, course) %>%
  summarise(Average_Grade2 = mean(grade, na.rm = TRUE))

`summarise()` has grouped output by 'id', 'group'. You can override using the
`.groups` argument.

average_grades2

# A tibble: 1,770 × 4
# Groups:   id, group [885]
      id group course                                      Average_Grade2
   <int> <int> <chr>                                                <dbl>
 1     1     8 Radiation Ecology and Environmental Science           11.5
 2     1     8 Renewable Energy and Sustainable Living               12.4
 3     2     9 Radiation Ecology and Environmental Science           11.1
 4     2     9 Renewable Energy and Sustainable Living               12.8
 5     3     2 Radiation Ecology and Environmental Science            7.5
 6     3     2 Renewable Energy and Sustainable Living               12  
 7     4     9 Radiation Ecology and Environmental Science           10.8
 8     4     9 Renewable Energy and Sustainable Living               13.8
 9     5     1 Radiation Ecology and Environmental Science           10.3
10     5     1 Renewable Energy and Sustainable Living               12.2
# ℹ 1,760 more rows

pivoted_grades2 <- average_grades2 %>%
  pivot_wider(names_from = course, values_from = Average_Grade2)
pivoted_grades2

# A tibble: 885 × 4
# Groups:   id, group [885]
      id group Radiation Ecology and Environmental Scie…¹ Renewable Energy and…²
   <int> <int>                                      <dbl>                  <dbl>
 1     1     8                                      11.5                    12.4
 2     2     9                                      11.1                    12.8
 3     3     2                                       7.5                    12  
 4     4     9                                      10.8                    13.8
 5     5     1                                      10.3                    12.2
 6     6    14                                      10.6                    12  
 7     7    19                                      11.4                    12.2
 8     8     2                                       9.12                   11.5
 9     9     2                                       9.75                   12.2
10    10    13                                       9.81                   13.6
# ℹ 875 more rows
# ℹ abbreviated names: ¹​`Radiation Ecology and Environmental Science`,
#   ²​`Renewable Energy and Sustainable Living`
…
#14

average_grades3 <- data_set %>%
  filter(course %in% c("Art and Expression in a Post-Apocalyptic World", "Survival Skills and Wilderness Medicine")) %>%
  group_by(id, group, course) %>%
  summarise(Average_Grade = mean(grade, na.rm = TRUE))

`summarise()` has grouped output by 'id', 'group'. You can override using the
`.groups` argument.

pivoted_grades3 <- average_grades3 %>%
  pivot_wider(names_from = course, values_from = Average_Grade)
pivoted_grades3

# A tibble: 885 × 4
# Groups:   id, group [885]
      id group Art and Expression in a Post-Apocalyptic…¹ Survival Skills and …²
   <int> <int>                                      <dbl>                  <dbl>
 1     1     8                                       13.8                   9.4 
 2     2     9                                       13                     8.6 
 3     3     2                                       12.5                   8.3 
 4     4     9                                       14.6                  10.5 
 5     5     1                                       13.4                   9.3 
 6     6    14                                       12.6                   8.78
 7     7    19                                       12.5                   7.8 
 8     8     2                                       12.1                   7.89
 9     9     2                                       12.1                   7.6 
10    10    13                                       13.6                  10.1 
# ℹ 875 more rows
# ℹ abbreviated names: ¹​`Art and Expression in a Post-Apocalyptic World`,
#   ²​`Survival Skills and Wilderness Medicine`
…
